{
    "jet_collection": "AntiKt4EMPFlowJets",
    "calibration": {
        "file": "fragments/pflow-calibration.json"
    },
    "selection": {
        "file": "fragments/pflow-selection.json"
    },
    "vertex_collection": "PrimaryVertices",
    "dl2_configs": [
        {
            "nn_file_path": "BTagging/20220314/dipsLoose/antikt4empflow/network.json",
            "remapping": {
                "invalidIp": ""
            }
        },
        {
            "nn_file_path": "BTagging/20220509/dl1dLoose/antikt4empflow/network.json",
            "remapping": {
                "invalidIp": ""
            }
        },
        {
            "nn_file_path": "BTagging/20220509/gn1/antikt4empflow/network.onnx",
            "engine": "gnn"
        },
        {
            "nn_file_path": "BTagging/20220509/gn1lep/antikt4empflow/network.onnx",
            "engine": "gnn"
        }
    ],
    "variables": {
        "file": "fragments/pflow-variables.json",
        "btagging" : {
            "chars" : [
                "rnnip_isDefaults",
                "softElectron_isDefaults"
            ],
            "floats": [
                "GN120220509_pb",
                "GN120220509_pc",
                "GN120220509_pu",
                "GN1Lep20220509_pb",
                "GN1Lep20220509_pc",
                "GN1Lep20220509_pu",
                "rnnip_pu",
                "rnnip_pc",
                "rnnip_pb",
                "DL1r_pu",
                "DL1r_pc",
                "DL1r_pb",
                "dipsLoose20210729_pb",
                "dipsLoose20210729_pc",
                "dipsLoose20210729_pu",
                "dipsLoose20220314v2_pb",
                "dipsLoose20220314v2_pc",
                "dipsLoose20220314v2_pu",
                "DL1dv00_pu",
                "DL1dv00_pc",
                "DL1dv00_pb",
                "DL1dv01_pu",
                "DL1dv01_pc",
                "DL1dv01_pb",
                "softElectron_ptr",
                "softElectron_dr",
                "softElectron_isoPt",
                "softElectron_abseta",
                "softElectron_d0Signed",
                "softElectron_z0Signed",
                "softElectron_d0SignedSig",
                "softElectron_epht",
                "softElectron_dphires",
                "softElectron_eop",
                "softElectron_rhad",
                "softElectron_rhad1",
                "softElectron_eratio",
                "softElectron_weta2",
                "softElectron_reta",
                "softElectron_f1",
                "softElectron_f3",
                "softElectron_phf"
            ]
        },
        "jet" : {
            "ints" : [
                "n_tracks",
                "n_electrons",
                "n_truth_promptLepton"
            ]
        },
        "default_mapping": {
            "file": "fragments/default-mapping.json"
        }
    },
    "tracks": [
        {
            "n_to_save": 40,
            "selection": {
                "file": "fragments/gnn-track-cuts.json"
            },
            "sort_order": "d0_significance",
            "btagging_link": "btaggingLink",
            "input_name": "BTagTrackToJetAssociator",
            "output_name": "tracks",
            "variables": {
                "file": "fragments/pflow-track-variables-all.json"
            },
            "ip_prefix": "btagIp_"
        }
    ],
    "truths": [
        {
            "file": "fragments/overlap-leptons-TRUTH3.json"
        },
        {
            "association": {
                "file": "fragments/baseline-truth-kinematics.json",
                "particles": "promptLepton"
            },
            "decorate_summary": true
        }
    ],
    "electrons": {
        "file": "fragments/flow_el.json",
        "selection": {
            "file": "fragments/gnn-electron-cuts.json"
        }
    },
    "decorate": {
        "jet_aug": false,
        "btag_jes": true,
        "soft_muon": false,
        "track_sv_info": true,
        "lepton_decay_label": true
    },
    "btagging_link": "btaggingLink"
}